{
    "lastBlock": 3659006,
    "tips": [
        {
            "blockNumber": 3475240,
            "source": "6XmmXY7zLRirfFQivNnn6LNyRP1aMvtzyr4gATsfbdFh2QqF",
            "dest": "6ZYrKKUG6SHzCbfz3qTzjhNbDQNTWu2hacZRvDCjaJCgHB4r",
            "amount": 11.25
        },
        {
            "blockNumber": 3475240,
            "source": "6XmmXY7zLRirfFQivNnn6LNyRP1aMvtzyr4gATsfbdFh2QqF",
            "dest": "6Xo1oQCC16fXPUVmFrNYQhXAufMxCXQCvCT4p2DHuZAc2Adh",
            "amount": 45
        },
        {
            "blockNumber": 3603857,
            "source": "6XmmXY7zLRirfFQivNnn6LNyRP1aMvtzyr4gATsfbdFh2QqF",
            "dest": "6ZCYbiKFv7zdQSctyK8jaWUXac5SUASZ2hSLAtbuf5Ke3vFo",
            "amount": 1000
        },
        {
            "blockNumber": 3604681,
            "source": "6XmmXY7zLRirfFQivNnn6LNyRP1aMvtzyr4gATsfbdFh2QqF",
            "dest": "6YjrEzwg5QDC3bzTUdNaFWRxbWCrZVNXsU8ThRVn2nAXnNYB",
            "amount": 2500
        },
        {
            "blockNumber": 3607531,
            "source": "6XmmXY7zLRirfFQivNnn6LNyRP1aMvtzyr4gATsfbdFh2QqF",
            "dest": "6VKP5bVgJsn3jnrtfcjnKeCXtDM8ow5oqN1kdr5zD7cixwfR",
            "amount": 100
        },
        {
            "blockNumber": 3607531,
            "source": "6XmmXY7zLRirfFQivNnn6LNyRP1aMvtzyr4gATsfbdFh2QqF",
            "dest": "6YqTugrzho7VgRL59j7yaEWTruNmcWxBbt5JxrrLKoE6wMFj",
            "amount": 150
        },
        {
            "blockNumber": 3607531,
            "source": "6XmmXY7zLRirfFQivNnn6LNyRP1aMvtzyr4gATsfbdFh2QqF",
            "dest": "6aCPz4AcBdaXGwiYyb3esU4PnBMMzkGqsfusqwvHrJS6LAUB",
            "amount": 50
        },
        {
            "blockNumber": 3607531,
            "source": "6XmmXY7zLRirfFQivNnn6LNyRP1aMvtzyr4gATsfbdFh2QqF",
            "dest": "6Vw9ZusTx5JjM198vvXdeseMxFS2b5hD7pkQE1MKFBbAzxFD",
            "amount": 50
        },
        {
            "blockNumber": 3617668,
            "source": "6XmmXY7zLRirfFQivNnn6LNyRP1aMvtzyr4gATsfbdFh2QqF",
            "dest": "6XiUiw36FKz5XRrWKaqFDLBUDdTTHsqWgPLcAgBqtbqoLNKx",
            "amount": 10
        },
        {
            "blockNumber": 3617670,
            "source": "6XmmXY7zLRirfFQivNnn6LNyRP1aMvtzyr4gATsfbdFh2QqF",
            "dest": "6VSsd7s5Xqwcr5SgMNq6DagHn4nzbvim2WMxLNSohJ6bmuZ7",
            "amount": 1
        },
        {
            "blockNumber": 3617672,
            "source": "6XmmXY7zLRirfFQivNnn6LNyRP1aMvtzyr4gATsfbdFh2QqF",
            "dest": "6YsTAefi4tmCEXtg8R3DES4Ph9SPiucFK9QPrR7iRP2K4Cnp",
            "amount": 10000
        },
        {
            "blockNumber": 3617682,
            "source": "6XmmXY7zLRirfFQivNnn6LNyRP1aMvtzyr4gATsfbdFh2QqF",
            "dest": "6aucGtS23ryRU988mMGxs2Yki5QEcdesvRM4MRE6PrRCuvBz",
            "amount": 5000
        },
        {
            "blockNumber": 3617684,
            "source": "6XmmXY7zLRirfFQivNnn6LNyRP1aMvtzyr4gATsfbdFh2QqF",
            "dest": "6ZPbh2bApWrZDgiQLsEPbv1sLx5ztMS4dX9vB7yXrwuhfwKA",
            "amount": 100
        },
        {
            "blockNumber": 3618452,
            "source": "6XmmXY7zLRirfFQivNnn6LNyRP1aMvtzyr4gATsfbdFh2QqF",
            "dest": "6Zk84WfAm6znorcf6GHaZGzd2WxngDwbvQ9thXKqE1A8A663",
            "amount": 100
        },
        {
            "blockNumber": 3618478,
            "source": "6XmmXY7zLRirfFQivNnn6LNyRP1aMvtzyr4gATsfbdFh2QqF",
            "dest": "6Zk84WfAm6znorcf6GHaZGzd2WxngDwbvQ9thXKqE1A8A663",
            "amount": 100
        },
        {
            "blockNumber": 3619185,
            "source": "6XmmXY7zLRirfFQivNnn6LNyRP1aMvtzyr4gATsfbdFh2QqF",
            "dest": "6WQGw8BbeMWU4dzivWC3CUThk5FiY1dGCaySwAgQgfVdrR5h",
            "amount": 10
        },
        {
            "blockNumber": 3619185,
            "source": "6XmmXY7zLRirfFQivNnn6LNyRP1aMvtzyr4gATsfbdFh2QqF",
            "dest": "6VN8fA4tXuN4cZMU6MpWYMARkQf3mtgrg587oK2mDrVbgpqU",
            "amount": 40
        },
        {
            "blockNumber": 3619185,
            "source": "6XmmXY7zLRirfFQivNnn6LNyRP1aMvtzyr4gATsfbdFh2QqF",
            "dest": "6WXkDF67VJbV9iAhEUh1BRqQC9FzSKsUbr6e3GjQ99ocYPFL",
            "amount": 2
        },
        {
            "blockNumber": 3619185,
            "source": "6XmmXY7zLRirfFQivNnn6LNyRP1aMvtzyr4gATsfbdFh2QqF",
            "dest": "6aucGtS23ryRU988mMGxs2Yki5QEcdesvRM4MRE6PrRCuvBz",
            "amount": 10
        },
        {
            "blockNumber": 3619185,
            "source": "6XmmXY7zLRirfFQivNnn6LNyRP1aMvtzyr4gATsfbdFh2QqF",
            "dest": "6XiUiw36FKz5XRrWKaqFDLBUDdTTHsqWgPLcAgBqtbqoLNKx",
            "amount": 10
        },
        {
            "blockNumber": 3619186,
            "source": "6XmmXY7zLRirfFQivNnn6LNyRP1aMvtzyr4gATsfbdFh2QqF",
            "dest": "6YPUqumC6BbHoEJn9KHUfwWwvo1n5mF8zjAEddP4eaWHjCc3",
            "amount": 1
        },
        {
            "blockNumber": 3619186,
            "source": "6XmmXY7zLRirfFQivNnn6LNyRP1aMvtzyr4gATsfbdFh2QqF",
            "dest": "6XFsCvGPV3QQaDEosdS5UcVx3STG66MXCjrCnoDdZRdji9Qb",
            "amount": 4
        },
        {
            "blockNumber": 3619186,
            "source": "6XmmXY7zLRirfFQivNnn6LNyRP1aMvtzyr4gATsfbdFh2QqF",
            "dest": "6YqTugrzho7VgRL59j7yaEWTruNmcWxBbt5JxrrLKoE6wMFj",
            "amount": 100
        },
        {
            "blockNumber": 3619187,
            "source": "6XmmXY7zLRirfFQivNnn6LNyRP1aMvtzyr4gATsfbdFh2QqF",
            "dest": "6XiUiw36FKz5XRrWKaqFDLBUDdTTHsqWgPLcAgBqtbqoLNKx",
            "amount": 10
        },
        {
            "blockNumber": 3619187,
            "source": "6XmmXY7zLRirfFQivNnn6LNyRP1aMvtzyr4gATsfbdFh2QqF",
            "dest": "6XiUiw36FKz5XRrWKaqFDLBUDdTTHsqWgPLcAgBqtbqoLNKx",
            "amount": 10
        },
        {
            "blockNumber": 3619187,
            "source": "6XmmXY7zLRirfFQivNnn6LNyRP1aMvtzyr4gATsfbdFh2QqF",
            "dest": "6YsTAefi4tmCEXtg8R3DES4Ph9SPiucFK9QPrR7iRP2K4Cnp",
            "amount": 10
        },
        {
            "blockNumber": 3619187,
            "source": "6XmmXY7zLRirfFQivNnn6LNyRP1aMvtzyr4gATsfbdFh2QqF",
            "dest": "6XiUiw36FKz5XRrWKaqFDLBUDdTTHsqWgPLcAgBqtbqoLNKx",
            "amount": 10
        },
        {
            "blockNumber": 3619188,
            "source": "6XmmXY7zLRirfFQivNnn6LNyRP1aMvtzyr4gATsfbdFh2QqF",
            "dest": "6ZPbh2bApWrZDgiQLsEPbv1sLx5ztMS4dX9vB7yXrwuhfwKA",
            "amount": 100
        },
        {
            "blockNumber": 3619188,
            "source": "6XmmXY7zLRirfFQivNnn6LNyRP1aMvtzyr4gATsfbdFh2QqF",
            "dest": "6WQGw8BbeMWU4dzivWC3CUThk5FiY1dGCaySwAgQgfVdrR5h",
            "amount": 0.6
        },
        {
            "blockNumber": 3619188,
            "source": "6XmmXY7zLRirfFQivNnn6LNyRP1aMvtzyr4gATsfbdFh2QqF",
            "dest": "6ZySbu7yGexL2yQSb43x8ofXXqRX8Ph8dMZoDyt2Yi8tgZS4",
            "amount": 2.4
        },
        {
            "blockNumber": 3619189,
            "source": "6XmmXY7zLRirfFQivNnn6LNyRP1aMvtzyr4gATsfbdFh2QqF",
            "dest": "6WXkDF67VJbV9iAhEUh1BRqQC9FzSKsUbr6e3GjQ99ocYPFL",
            "amount": 50
        },
        {
            "blockNumber": 3619189,
            "source": "6XmmXY7zLRirfFQivNnn6LNyRP1aMvtzyr4gATsfbdFh2QqF",
            "dest": "6Y9gC39bj42gVKRSamrbwJKiRCTYf6Hmr8Pkj5GVpAAk3t4z",
            "amount": 20
        },
        {
            "blockNumber": 3619189,
            "source": "6XmmXY7zLRirfFQivNnn6LNyRP1aMvtzyr4gATsfbdFh2QqF",
            "dest": "6VKP5bVgJsn3jnrtfcjnKeCXtDM8ow5oqN1kdr5zD7cixwfR",
            "amount": 80
        },
        {
            "blockNumber": 3619189,
            "source": "6XmmXY7zLRirfFQivNnn6LNyRP1aMvtzyr4gATsfbdFh2QqF",
            "dest": "6XiUiw36FKz5XRrWKaqFDLBUDdTTHsqWgPLcAgBqtbqoLNKx",
            "amount": 10
        },
        {
            "blockNumber": 3619191,
            "source": "6XmmXY7zLRirfFQivNnn6LNyRP1aMvtzyr4gATsfbdFh2QqF",
            "dest": "6ZPbh2bApWrZDgiQLsEPbv1sLx5ztMS4dX9vB7yXrwuhfwKA",
            "amount": 100
        },
        {
            "blockNumber": 3619191,
            "source": "6XmmXY7zLRirfFQivNnn6LNyRP1aMvtzyr4gATsfbdFh2QqF",
            "dest": "6WXkDF67VJbV9iAhEUh1BRqQC9FzSKsUbr6e3GjQ99ocYPFL",
            "amount": 15
        },
        {
            "blockNumber": 3619192,
            "source": "6XmmXY7zLRirfFQivNnn6LNyRP1aMvtzyr4gATsfbdFh2QqF",
            "dest": "6WGFnYrhrN6W2VsqbceUnr2t5KZAFoRuYUkYjvFCQQS9zM6W",
            "amount": 1
        },
        {
            "blockNumber": 3619192,
            "source": "6XmmXY7zLRirfFQivNnn6LNyRP1aMvtzyr4gATsfbdFh2QqF",
            "dest": "6ZPbh2bApWrZDgiQLsEPbv1sLx5ztMS4dX9vB7yXrwuhfwKA",
            "amount": 100
        },
        {
            "blockNumber": 3619193,
            "source": "6XmmXY7zLRirfFQivNnn6LNyRP1aMvtzyr4gATsfbdFh2QqF",
            "dest": "6XiUiw36FKz5XRrWKaqFDLBUDdTTHsqWgPLcAgBqtbqoLNKx",
            "amount": 10
        },
        {
            "blockNumber": 3619196,
            "source": "6XmmXY7zLRirfFQivNnn6LNyRP1aMvtzyr4gATsfbdFh2QqF",
            "dest": "6ZCYbiKFv7zdQSctyK8jaWUXac5SUASZ2hSLAtbuf5Ke3vFo",
            "amount": 1000
        },
        {
            "blockNumber": 3619206,
            "source": "6XmmXY7zLRirfFQivNnn6LNyRP1aMvtzyr4gATsfbdFh2QqF",
            "dest": "6YqTugrzho7VgRL59j7yaEWTruNmcWxBbt5JxrrLKoE6wMFj",
            "amount": 100
        },
        {
            "blockNumber": 3619206,
            "source": "6XmmXY7zLRirfFQivNnn6LNyRP1aMvtzyr4gATsfbdFh2QqF",
            "dest": "6YqTugrzho7VgRL59j7yaEWTruNmcWxBbt5JxrrLKoE6wMFj",
            "amount": 100
        },
        {
            "blockNumber": 3619206,
            "source": "6XmmXY7zLRirfFQivNnn6LNyRP1aMvtzyr4gATsfbdFh2QqF",
            "dest": "6XiUiw36FKz5XRrWKaqFDLBUDdTTHsqWgPLcAgBqtbqoLNKx",
            "amount": 10
        },
        {
            "blockNumber": 3619207,
            "source": "6XmmXY7zLRirfFQivNnn6LNyRP1aMvtzyr4gATsfbdFh2QqF",
            "dest": "6XiUiw36FKz5XRrWKaqFDLBUDdTTHsqWgPLcAgBqtbqoLNKx",
            "amount": 10
        },
        {
            "blockNumber": 3619207,
            "source": "6XmmXY7zLRirfFQivNnn6LNyRP1aMvtzyr4gATsfbdFh2QqF",
            "dest": "6WGFnYrhrN6W2VsqbceUnr2t5KZAFoRuYUkYjvFCQQS9zM6W",
            "amount": 9
        },
        {
            "blockNumber": 3619878,
            "source": "6XmmXY7zLRirfFQivNnn6LNyRP1aMvtzyr4gATsfbdFh2QqF",
            "dest": "6VKP5bVgJsn3jnrtfcjnKeCXtDM8ow5oqN1kdr5zD7cixwfR",
            "amount": 2000
        },
        {
            "blockNumber": 3621391,
            "source": "6XmmXY7zLRirfFQivNnn6LNyRP1aMvtzyr4gATsfbdFh2QqF",
            "dest": "6X23oWBz1r6NwKbjNn4d5rwdZK4dyHXzyQiCkt3NN73Jdwkh",
            "amount": 2500
        },
        {
            "blockNumber": 3621392,
            "source": "6XmmXY7zLRirfFQivNnn6LNyRP1aMvtzyr4gATsfbdFh2QqF",
            "dest": "6WXkDF67VJbV9iAhEUh1BRqQC9FzSKsUbr6e3GjQ99ocYPFL",
            "amount": 5
        },
        {
            "blockNumber": 3621393,
            "source": "6XmmXY7zLRirfFQivNnn6LNyRP1aMvtzyr4gATsfbdFh2QqF",
            "dest": "6Vrc58Yvw2KRUk1BXMnmP2ARXqy4JZhZmmeLuK2jAcwJrhnV",
            "amount": 6
        },
        {
            "blockNumber": 3621394,
            "source": "6XmmXY7zLRirfFQivNnn6LNyRP1aMvtzyr4gATsfbdFh2QqF",
            "dest": "6a8vA1TrCxGTCyTcALbD23oYNkqdHfDeujUZ623FRfmH1pLb",
            "amount": 2500
        },
        {
            "blockNumber": 3621396,
            "source": "6XmmXY7zLRirfFQivNnn6LNyRP1aMvtzyr4gATsfbdFh2QqF",
            "dest": "6aWr26wP5AMd2rWZByokzMT5apt9XSt7tw87aDfbttbgV4GE",
            "amount": 3
        },
        {
            "blockNumber": 3621396,
            "source": "6XmmXY7zLRirfFQivNnn6LNyRP1aMvtzyr4gATsfbdFh2QqF",
            "dest": "6WXkDF67VJbV9iAhEUh1BRqQC9FzSKsUbr6e3GjQ99ocYPFL",
            "amount": 13
        },
        {
            "blockNumber": 3621397,
            "source": "6XmmXY7zLRirfFQivNnn6LNyRP1aMvtzyr4gATsfbdFh2QqF",
            "dest": "6WGFnYrhrN6W2VsqbceUnr2t5KZAFoRuYUkYjvFCQQS9zM6W",
            "amount": 1
        },
        {
            "blockNumber": 3621397,
            "source": "6XmmXY7zLRirfFQivNnn6LNyRP1aMvtzyr4gATsfbdFh2QqF",
            "dest": "6aucGtS23ryRU988mMGxs2Yki5QEcdesvRM4MRE6PrRCuvBz",
            "amount": 5000
        },
        {
            "blockNumber": 3622568,
            "source": "6XmmXY7zLRirfFQivNnn6LNyRP1aMvtzyr4gATsfbdFh2QqF",
            "dest": "6YqTugrzho7VgRL59j7yaEWTruNmcWxBbt5JxrrLKoE6wMFj",
            "amount": 100
        },
        {
            "blockNumber": 3622603,
            "source": "6XmmXY7zLRirfFQivNnn6LNyRP1aMvtzyr4gATsfbdFh2QqF",
            "dest": "6WQGw8BbeMWU4dzivWC3CUThk5FiY1dGCaySwAgQgfVdrR5h",
            "amount": 0.4
        },
        {
            "blockNumber": 3622603,
            "source": "6XmmXY7zLRirfFQivNnn6LNyRP1aMvtzyr4gATsfbdFh2QqF",
            "dest": "6VN8fA4tXuN4cZMU6MpWYMARkQf3mtgrg587oK2mDrVbgpqU",
            "amount": 1.6
        },
        {
            "blockNumber": 3622959,
            "source": "6XmmXY7zLRirfFQivNnn6LNyRP1aMvtzyr4gATsfbdFh2QqF",
            "dest": "6Zk84WfAm6znorcf6GHaZGzd2WxngDwbvQ9thXKqE1A8A663",
            "amount": 62.5
        },
        {
            "blockNumber": 3628361,
            "source": "6XmmXY7zLRirfFQivNnn6LNyRP1aMvtzyr4gATsfbdFh2QqF",
            "dest": "6WQGw8BbeMWU4dzivWC3CUThk5FiY1dGCaySwAgQgfVdrR5h",
            "amount": 0.8
        },
        {
            "blockNumber": 3628361,
            "source": "6XmmXY7zLRirfFQivNnn6LNyRP1aMvtzyr4gATsfbdFh2QqF",
            "dest": "6VN8fA4tXuN4cZMU6MpWYMARkQf3mtgrg587oK2mDrVbgpqU",
            "amount": 3.2
        },
        {
            "blockNumber": 3628364,
            "source": "6XmmXY7zLRirfFQivNnn6LNyRP1aMvtzyr4gATsfbdFh2QqF",
            "dest": "6aWr26wP5AMd2rWZByokzMT5apt9XSt7tw87aDfbttbgV4GE",
            "amount": 1
        },
        {
            "blockNumber": 3632089,
            "source": "6XmmXY7zLRirfFQivNnn6LNyRP1aMvtzyr4gATsfbdFh2QqF",
            "dest": "6YsTAefi4tmCEXtg8R3DES4Ph9SPiucFK9QPrR7iRP2K4Cnp",
            "amount": 50
        },
        {
            "blockNumber": 3632089,
            "source": "6XmmXY7zLRirfFQivNnn6LNyRP1aMvtzyr4gATsfbdFh2QqF",
            "dest": "6ZvyrVRb5mLyEU82ocvHiFX4DV7WoQjvgJHHszojG3xxD878",
            "amount": 250
        },
        {
            "blockNumber": 3632089,
            "source": "6XmmXY7zLRirfFQivNnn6LNyRP1aMvtzyr4gATsfbdFh2QqF",
            "dest": "6WGRHjuF1GmdfznvgPt7So14EH9h8medaDERw24VTDWg2ui7",
            "amount": 100
        },
        {
            "blockNumber": 3632089,
            "source": "6XmmXY7zLRirfFQivNnn6LNyRP1aMvtzyr4gATsfbdFh2QqF",
            "dest": "6XiUiw36FKz5XRrWKaqFDLBUDdTTHsqWgPLcAgBqtbqoLNKx",
            "amount": 10
        },
        {
            "blockNumber": 3632090,
            "source": "6XmmXY7zLRirfFQivNnn6LNyRP1aMvtzyr4gATsfbdFh2QqF",
            "dest": "6ZPbh2bApWrZDgiQLsEPbv1sLx5ztMS4dX9vB7yXrwuhfwKA",
            "amount": 100
        },
        {
            "blockNumber": 3632090,
            "source": "6XmmXY7zLRirfFQivNnn6LNyRP1aMvtzyr4gATsfbdFh2QqF",
            "dest": "6aWr26wP5AMd2rWZByokzMT5apt9XSt7tw87aDfbttbgV4GE",
            "amount": 1
        },
        {
            "blockNumber": 3632090,
            "source": "6XmmXY7zLRirfFQivNnn6LNyRP1aMvtzyr4gATsfbdFh2QqF",
            "dest": "6XrKbB2FCXtLwe1X7ZdBYdurhpsPGpA7sDWpMuAZcR832dGQ",
            "amount": 2000
        },
        {
            "blockNumber": 3633652,
            "source": "6XmmXY7zLRirfFQivNnn6LNyRP1aMvtzyr4gATsfbdFh2QqF",
            "dest": "6Zk84WfAm6znorcf6GHaZGzd2WxngDwbvQ9thXKqE1A8A663",
            "amount": 100
        },
        {
            "blockNumber": 3634641,
            "source": "6XmmXY7zLRirfFQivNnn6LNyRP1aMvtzyr4gATsfbdFh2QqF",
            "dest": "6Zk84WfAm6znorcf6GHaZGzd2WxngDwbvQ9thXKqE1A8A663",
            "amount": 100
        },
        {
            "blockNumber": 3634648,
            "source": "6XmmXY7zLRirfFQivNnn6LNyRP1aMvtzyr4gATsfbdFh2QqF",
            "dest": "6Zk84WfAm6znorcf6GHaZGzd2WxngDwbvQ9thXKqE1A8A663",
            "amount": 100
        },
        {
            "blockNumber": 3635553,
            "source": "6XmmXY7zLRirfFQivNnn6LNyRP1aMvtzyr4gATsfbdFh2QqF",
            "dest": "6aWr26wP5AMd2rWZByokzMT5apt9XSt7tw87aDfbttbgV4GE",
            "amount": 1
        },
        {
            "blockNumber": 3635555,
            "source": "6XmmXY7zLRirfFQivNnn6LNyRP1aMvtzyr4gATsfbdFh2QqF",
            "dest": "6WGFnYrhrN6W2VsqbceUnr2t5KZAFoRuYUkYjvFCQQS9zM6W",
            "amount": 1
        },
        {
            "blockNumber": 3635555,
            "source": "6XmmXY7zLRirfFQivNnn6LNyRP1aMvtzyr4gATsfbdFh2QqF",
            "dest": "6YqTugrzho7VgRL59j7yaEWTruNmcWxBbt5JxrrLKoE6wMFj",
            "amount": 500
        },
        {
            "blockNumber": 3635556,
            "source": "6XmmXY7zLRirfFQivNnn6LNyRP1aMvtzyr4gATsfbdFh2QqF",
            "dest": "6WXkDF67VJbV9iAhEUh1BRqQC9FzSKsUbr6e3GjQ99ocYPFL",
            "amount": 7
        },
        {
            "blockNumber": 3635557,
            "source": "6XmmXY7zLRirfFQivNnn6LNyRP1aMvtzyr4gATsfbdFh2QqF",
            "dest": "6ZPbh2bApWrZDgiQLsEPbv1sLx5ztMS4dX9vB7yXrwuhfwKA",
            "amount": 100
        },
        {
            "blockNumber": 3635557,
            "source": "6XmmXY7zLRirfFQivNnn6LNyRP1aMvtzyr4gATsfbdFh2QqF",
            "dest": "6XFsCvGPV3QQaDEosdS5UcVx3STG66MXCjrCnoDdZRdji9Qb",
            "amount": 100
        },
        {
            "blockNumber": 3635557,
            "source": "6XmmXY7zLRirfFQivNnn6LNyRP1aMvtzyr4gATsfbdFh2QqF",
            "dest": "6ZuugsfDqpGoB9ChqGBPeV6pQGkbNgpavzt1jiGMiKdR9pb4",
            "amount": 40000
        },
        {
            "blockNumber": 3635558,
            "source": "6XmmXY7zLRirfFQivNnn6LNyRP1aMvtzyr4gATsfbdFh2QqF",
            "dest": "6XFsCvGPV3QQaDEosdS5UcVx3STG66MXCjrCnoDdZRdji9Qb",
            "amount": 10
        }
    ]
}